<svg xmlns:xlink="http://www.w3.org/1999/xlink" data-name="Layer 1"
    height="811.41" id="4e463a22-6ddb-479b-a6e5-bedc922df74f" viewBox="0 0 1100.02 811.41"
    width="1100.02" xmlns="http://www.w3.org/2000/svg">
    <defs>
        <linearGradient gradientUnits="userSpaceOnUse" id="785c60ff-874e-47fc-85e9-4f7317d8d736" x1="942.13"
            x2="942.13" y1="802.28" y2="308.24">
            <stop offset="0" stop-color="gray" stop-opacity="0.25" />
            <stop offset="0.54" stop-color="gray" stop-opacity="0.12" />
            <stop offset="1" stop-color="gray" stop-opacity="0.1" />
        </linearGradient>
    </defs>
    <title>feeling blue</title>
    <path
        d="M61.83,433.31C79.2,500.44,115.94,558.47,174,586.6c120.7,58.46,392.91,28.31,596.07-6.3C875.16,562.4,967.53,513,1034.63,443.48Z"
        fill="#ff6347" opacity="0.1" transform="translate(-49.99 -44.29)" />
    <path
        d="M1127.19,117.32H1015.72c-5.29,0-9.63-3.92-9.63-8.71s4.34-8.72,9.63-8.72H1035c-5.3,0-9.63-3.92-9.63-8.72s4.33-8.71,9.63-8.71h-13.76c-5.3,0-9.64-3.92-9.64-8.72s4.34-8.71,9.64-8.71h58.18c-12.91-5.43-28-9.29-45.39-11.32C875.38,35.28,818.74,47.47,798.76,60a234.52,234.52,0,0,1-81.54,32.34c-97.88,18.27-280.93,40.25-446.84-7C187.92,61.81,126.63,101.52,89.9,167.9H1146.55c-1.38-19.29-5.51-37.11-13.09-52.7A10.17,10.17,0,0,1,1127.19,117.32Z"
        fill="#ff6347" opacity="0.1" transform="translate(-49.99 -44.29)" />
    <path
        d="M52.38,293.19A402.53,402.53,0,0,0,56.7,410.31l978.68,32.39a415.21,415.21,0,0,0,68-93.82Zm387.08,83.55H420.19c5.3,0,9.64,3.93,9.64,8.72s-4.34,8.71-9.64,8.71H308.72c-5.29,0-9.63-3.92-9.63-8.71s4.34-8.72,9.63-8.72H328c-5.3,0-9.63-3.92-9.63-8.71s4.33-8.72,9.63-8.72H314.23c-5.3,0-9.64-3.92-9.64-8.71s4.34-8.72,9.64-8.72H425.7c5.3,0,9.63,3.92,9.63,8.72s-4.33,8.71-9.63,8.71h13.76c5.3,0,9.63,3.92,9.63,8.72S444.76,376.74,439.46,376.74Z"
        fill="#ff6347" opacity="0.1" transform="translate(-49.99 -44.29)" />
    <path
        d="M1146.59,168.5,78.11,192c-13,30.23-21.62,64.41-25.59,99.83H1127.87a379.29,379.29,0,0,0,15.52-63.63C1146.6,207.39,1147.88,187.26,1146.59,168.5ZM269.46,245.55H250.19c5.3,0,9.64,3.93,9.64,8.72s-4.34,8.72-9.64,8.72H138.72c-5.29,0-9.63-3.93-9.63-8.72s4.34-8.72,9.63-8.72H158c-5.3,0-9.63-3.92-9.63-8.71s4.33-8.72,9.63-8.72H144.23c-5.3,0-9.64-3.92-9.64-8.71s4.34-8.72,9.64-8.72H255.7c5.3,0,9.63,3.92,9.63,8.72s-4.33,8.71-9.63,8.71h13.76c5.3,0,9.63,3.93,9.63,8.72S274.76,245.55,269.46,245.55Z"
        fill="#ff6347" opacity="0.1" transform="translate(-49.99 -44.29)" />
    <ellipse cx="545.08" cy="739.96" fill="#ff6347" opacity="0.1" rx="446.98" ry="41.12" />
    <path
        d="M1050.63,444.61a1.48,1.48,0,0,1,0-.21c0-.11,0-.21,0-.31h0a8.54,8.54,0,0,0-1.27-3.21,25.29,25.29,0,0,0-9.26-8.76c-6.6-3.62-15.67-5.17-18.31-12.08-.81-2.14-.83-4.47-1.23-6.71a20.29,20.29,0,0,0-13.39-15.23c-3.14-1.05-6.53-1.34-9.58-2.64-6.82-2.9-10.42-10.05-13.47-16.66q-5.92-12.8-11.84-25.61c-3,1.51-6.88.8-9.69-1.09a20.1,20.1,0,0,1-6.27-7.75c-4.07-7.9-5.82-16.85-10.6-24.37s-14.33-13.46-22.77-10.19a38.86,38.86,0,0,1-5.1,2.11c-7.23,1.69-15.23-6.57-21.42-2.56A7,7,0,0,0,894,312a1.2,1.2,0,0,1,0-.2,12.79,12.79,0,0,0-1.32,5.22v0c0,.37,0,.73,0,1.08,0,.06,0,.12,0,.18,0,1.44.09,2.9.11,4.36a19.43,19.43,0,0,1-.28,3.66l0-.1a12.32,12.32,0,0,1-.52,2c-1.61,4.32-6.07,7.15-8.16,11.21l0-.2a10.56,10.56,0,0,0-.61,1.37,10.2,10.2,0,0,0-.57,3.31c-.18,7.63,7.91,14.81,8.85,23,.67,5.8,2,7.66,6.93,10.94l1.08.72c-.43,0-.87.06-1.36.07a3.32,3.32,0,0,0-.57.06,6.1,6.1,0,0,0-5.14.9c-3.78,3-12.72.69-16.69,0s-17.57,1.17-19.47,8.71-5.16,23.1-5.16,23.1,0,9.87-1.21,11.71a.59.59,0,0,0,0,.4c0,2.77.1,19.42-2.58,23.71-.66,1-.61,3.21-.12,5.93-2.82,3.63-5.47,7.87-5,10.65.86,5.69,12.4,23.58,28.94,14,0,0,9.41-17.21-2.43-26.36l.51-2c3.58,4.4,6.23,7.56,6.23,7.56s.14.37.36,1h-.36a47,47,0,0,1,2.78,13.08,16,16,0,0,1-.88,4.81h.31c-.09.34-.19.68-.31,1a8.72,8.72,0,0,1-3.11,4.21c-8.27,5.86-17.74,47.71-17.74,47.71S837.75,596.45,834,600.3c-3.1,3.16,16.38,12.06,31,11a23.86,23.86,0,0,0,6-1.14c.09,1,.19,2,.29,2.91.31,3,.63,5.78.83,6.65.52,2.18,1.55,24.44,1.55,24.44s-2.11,14.46-1.6,24.52c0,.69.09,1.35.15,2l-1.82.28c-2.76,6.2,8.61,57.93,10.16,62.28a41.42,41.42,0,0,1,1.72,10.55s-1,3.68-.17,5.69a13.84,13.84,0,0,1,1,3.85s-.68,3.34.35,5.52-.17,6-.17,6-.34,15.07-3.44,23.27A13.4,13.4,0,0,0,882,801.4a8.21,8.21,0,0,0,.7.81s17.1.14,20.11,0l.39,0c1.21-.17,4.31-13.73,1.55-20.26s-.34-14.57-.34-14.57V755.5s3.1-2.86,0-9-2.59-8-2.59-8,3.45-9.88-.17-13.06.69-15.24.69-15.24L903.56,670a15.81,15.81,0,0,0-1.95-.5c-.07-.66-.14-1.34-.21-2.06-.71-7.28-1.32-17.18.26-20S904,620,904.25,602.89l15.76.6c.33,8,.68,15.3.9,16.23.52,2.18,1.56,24.44,1.56,24.44s-2.12,14.46-1.61,24.52c0,.69.09,1.35.15,2l-1.82.28c-2.76,6.2,8.61,57.93,10.16,62.28a41.65,41.65,0,0,1,1.73,10.55s-1,3.68-.18,5.69a13.84,13.84,0,0,1,1,3.85s-.68,3.34.35,5.52-.17,6-.17,6-.34,15.07-3.44,23.27a13.4,13.4,0,0,0,2.22,13.26,8.21,8.21,0,0,0,.7.81s17.1.14,20.11,0l.39,0c1.21-.17,4.31-13.73,1.55-20.26s-.34-14.57-.34-14.57V755.5s3.1-2.86,0-9-2.59-8-2.59-8,3.45-9.88-.17-13.06.69-15.24.69-15.24L952.44,670a15.36,15.36,0,0,0-2-.5c-.07-.66-.14-1.34-.21-2.06-.71-7.28-1.32-17.18.26-20,1.27-2.31,2-17.19,2.33-31.72,0-1,0-2,.08-3a155.09,155.09,0,0,0,21.58-2.42s-8.43-29.81-5.85-34.66c1.11-2.09-.49-13.22-2.68-25.21a17.52,17.52,0,0,0,10.78,3.9c3.77,7.25,15.24,23.93,21.7,26.5,7.58,3,1.89-23.6-1.72-27.45a32.39,32.39,0,0,1-4.28-6.87c.1-.12.21-.22.31-.33s.18-28.3-1.55-27.79-3.79-4.19-3.79-4.19l-5.34-46.87-2.24-19.62,0,0c1.87,1.38,4.09,2.26,6,3.63,5.2,3.81,6.9,10.5,9.18,16.42,1.88,4.87,4.52,9.7,8.85,12.76s10.68,3.87,15,.77c4-2.91,5.18-8.16,6.06-12.95,7.26,2.55,16.07-4.27,15.13-11.72-.23-1.84-.91-3.85.05-5.46,1.92-3.18,8-1.33,10-4.47a3.34,3.34,0,0,0,.5-1.81C1050.62,444.74,1050.63,444.68,1050.63,444.61Zm-97.11,25.78c-.11,1.79,2.35,16.17,4.35,27.55-1.64-7.09-4.93-14.66-11.41-19.85,0,0,0-.36-.08-1h.08s-.27-2.86-.31-6.93a76.34,76.34,0,0,1,.8-10.78v-.09h-.13c0-.3.08-.61.13-.91a32.5,32.5,0,0,1,2.43-8.74,24.23,24.23,0,0,1,1.85-3.14C952.3,456.17,953.62,468.58,953.52,470.39Zm5.38,33.32c.88,4.91,1.51,8.36,1.51,8.36l5.31,36.46v.17c-2.86-15.39-6.51-31.61-6.51-31.61A63,63,0,0,0,958.9,503.71Z"
        fill="url(#785c60ff-874e-47fc-85e9-4f7317d8d736)" transform="translate(-49.99 -44.29)" />
    <path
        d="M893.82,368.89c-1-9.24-11-17.21-8-26,1.63-4.79,6.73-7.72,8.45-12.48,1.14-3.14.63-6.59.64-9.93s.79-7.07,3.57-8.92c6-4,13.72,4.23,20.72,2.55a36.67,36.67,0,0,0,4.93-2.1c8.17-3.25,17.41,2.67,22,10.15s6.31,16.4,10.25,24.26a19.9,19.9,0,0,0,6.06,7.71c2.72,1.88,6.44,2.59,9.38,1.09l11.45,25.5c3,6.57,6.44,13.69,13,16.58,2.94,1.29,6.22,1.58,9.26,2.63a20,20,0,0,1,13,15.15c.39,2.24.4,4.56,1.19,6.69,2.55,6.88,11.32,8.42,17.71,12a24.77,24.77,0,0,1,9,8.71c1,1.73,1.86,4,.79,5.7-1.93,3.12-7.8,1.28-9.66,4.45-.94,1.6-.28,3.6,0,5.44.91,7.41-7.62,14.2-14.64,11.66-.85,4.77-2,10-5.86,12.89-4.15,3.1-10.3,2.28-14.49-.76s-6.73-7.85-8.55-12.7c-2.21-5.9-3.86-12.56-8.89-16.35-1.82-1.36-4-2.24-5.78-3.61-4-3.06-6-8.11-7.43-13-1.85-6.1-3.32-12.37-6-18.13s-6.92-11.12-12.73-13.75c-5.45-2.45-11.73-2.29-17.36-4.28-9.69-3.42-16.86-11.57-26.5-15.41a42.89,42.89,0,0,1-8.7-4.92C895.78,376.52,894.46,374.67,893.82,368.89Z"
        fill="#3f3d56" transform="translate(-49.99 -44.29)" />
    <g opacity="0.1">
        <path
            d="M894.72,328.45a10.12,10.12,0,0,0,.54-1.21c1.13-3.14.63-6.59.64-9.93a17.84,17.84,0,0,1,.31-3.32,14,14,0,0,0-1.31,6.32C894.89,323,895.21,325.82,894.72,328.45Z"
            transform="translate(-49.99 -44.29)" />
        <path
            d="M1018,479.48c-4.15,3.09-10.3,2.28-14.49-.77S996.77,470.87,995,466c-2.21-5.9-3.85-12.56-8.89-16.35-1.81-1.36-4-2.25-5.77-3.61-4-3.06-6-8.11-7.44-12.95-1.85-6.1-3.31-12.37-6-18.13s-6.91-11.12-12.73-13.75c-5.44-2.45-11.72-2.29-17.35-4.28-9.7-3.42-16.87-11.57-26.5-15.41a43.45,43.45,0,0,1-8.71-4.92c-4.74-3.27-6-5.12-6.7-10.89-1-8.66-9.8-16.21-8.43-24.37a12.68,12.68,0,0,0-.59,1.36c-3,8.8,7,16.77,8,26,.65,5.77,2,7.62,6.7,10.89a43.45,43.45,0,0,0,8.71,4.92c9.63,3.84,16.8,12,26.5,15.41,5.63,2,11.91,1.83,17.35,4.28,5.82,2.63,10,8,12.73,13.75s4.19,12,6,18.13c1.47,4.84,3.4,9.89,7.44,12.95,1.81,1.36,4,2.25,5.77,3.61,5,3.79,6.68,10.45,8.89,16.35,1.82,4.85,4.37,9.65,8.56,12.69s10.34,3.86,14.49.77c2.65-2,4-5.05,4.89-8.32A12.28,12.28,0,0,1,1018,479.48Z"
            transform="translate(-49.99 -44.29)" />
        <path
            d="M1038.55,449.49a4.21,4.21,0,0,0-.48,2.34c2.26-2.23,7.36-.92,9.14-3.79a3.65,3.65,0,0,0,.46-2.35C1045.35,447.89,1040.25,446.58,1038.55,449.49Z"
            transform="translate(-49.99 -44.29)" />
        <path
            d="M1023.86,466.59c-.19,1-.38,2.07-.62,3.11,6.12,1.91,13.19-3,14.19-9.2C1035,465.27,1029,468.46,1023.86,466.59Z"
            transform="translate(-49.99 -44.29)" />
    </g>
    <path
        d="M906.74,373.7s3.33,6.72-6.5,6.86,6.33,43.64,6.33,43.64L922.91,445l20.33-11,1.17-30.34,1.5-18.33s-19-6.17-15.5-14.33S906.74,373.7,906.74,373.7Z"
        fill="#fbbebe" transform="translate(-49.99 -44.29)" />
    <path d="M965.75,551.06s12,11.81,26-3.86L981,535.79H967.4Z" fill="#575a89"
        transform="translate(-49.99 -44.29)" />
    <path d="M967.05,535.79l-1.65,15.27s12,11.81,26-3.86" opacity="0.1"
        transform="translate(-49.99 -44.29)" />
    <path
        d="M987.24,537.87s4.83,12.67,8.33,16.5,9,30.33,1.67,27.33-21.33-25.33-22.17-29.16-1.16-14.67-1.16-14.67Z"
        fill="#fbbebe" transform="translate(-49.99 -44.29)" />
    <polygon fill="#575a89"
        points="832.42 558.58 897.08 561.08 889.58 533.74 857.01 533.08 832.42 558.58" />
    <polygon opacity="0.1"
        points="841.41 558.58 906.08 561.08 898.58 533.74 866 533.08 841.41 558.58" />
    <path
        d="M903.57,648c-1.53,2.85-.94,12.71-.25,20,.44,4.64.92,8.21.92,8.21s-24.17,7.5-27.83,1c-.93-1.65-1.39-4.54-1.55-7.93-.5-10,1.55-24.41,1.55-24.41s-1-22.16-1.5-24.33c-.2-.87-.51-3.63-.81-6.62-.44-4.44-.86-9.38-.86-9.38l33-17.5s0,3.28-.06,8.33C906,611.23,905.47,644.5,903.57,648Z"
        fill="#fbbebe" transform="translate(-49.99 -44.29)" />
    <path
        d="M904.24,676.21s-24.17,7.5-27.83,1c-.93-1.65-1.39-4.54-1.55-7.93,5-.76,20.22-2.86,28.46-1.28C903.76,672.64,904.24,676.21,904.24,676.21Z"
        opacity="0.1" transform="translate(-49.99 -44.29)" />
    <path
        d="M905.07,802.21l-.38,0c-2.91.11-19.45,0-19.45,0a9,9,0,0,1-.68-.8,13.64,13.64,0,0,1-2.15-13.2c3-8.17,3.33-23.17,3.33-23.17s1.17-3.83.17-6-.34-5.5-.34-5.5a14.25,14.25,0,0,0-1-3.83c-.83-2,.17-5.67.17-5.67a42.45,42.45,0,0,0-1.67-10.5c-1.5-4.33-12.5-55.83-9.83-62,0,0,23.33-4,32.17-1l-1.17,40s-4.17,12-.67,15.17.17,13,.17,13-.5,1.83,2.5,8,0,9,0,9v11.83s-2.33,8,.33,14.5S906.24,802,905.07,802.21Z"
        fill="#3f3d56" transform="translate(-49.99 -44.29)" />
    <path
        d="M950.86,648c-1.53,2.85-.94,12.71-.25,20,.44,4.64.92,8.21.92,8.21s-24.17,7.5-27.83,1c-.93-1.65-1.39-4.54-1.55-7.93-.5-10,1.55-24.41,1.55-24.41s-1-22.16-1.5-24.33c-.27-1.17-.74-12.33-1.11-22.34-.31-8.54-.56-16.26-.56-16.26l33,5.1s0,14.51-.41,29.42C952.76,630.92,952.09,645.74,950.86,648Z"
        fill="#fbbebe" transform="translate(-49.99 -44.29)" />
    <path
        d="M951.53,676.21s-24.17,7.5-27.83,1c-.93-1.65-1.39-4.54-1.55-7.93,5-.76,20.22-2.86,28.46-1.28C951.05,672.64,951.53,676.21,951.53,676.21Z"
        opacity="0.1" transform="translate(-49.99 -44.29)" />
    <path
        d="M952.36,802.21l-.38,0c-2.91.11-19.45,0-19.45,0a9,9,0,0,1-.68-.8,13.64,13.64,0,0,1-2.15-13.2C932.7,780,933,765,933,765s1.17-3.83.17-6-.34-5.5-.34-5.5a14.25,14.25,0,0,0-1-3.83c-.83-2,.17-5.67.17-5.67a42.45,42.45,0,0,0-1.67-10.5c-1.5-4.33-12.5-55.83-9.83-62,0,0,23.33-4,32.17-1l-1.17,40s-4.17,12-.67,15.17.17,13,.17,13-.5,1.83,2.5,8,0,9,0,9v11.83s-2.33,8,.33,14.5S953.53,802,952.36,802.21Z"
        fill="#3f3d56" transform="translate(-49.99 -44.29)" />
    <circle cx="869.75" cy="313.77" opacity="0.1" r="23.5" />
    <circle cx="869.75" cy="312.77" fill="#fbbebe" r="23.5" />
    <path
        d="M873.24,604.54l33-17.5s0,3.28-.06,8.33c-4.82,2.88-12.09,7.21-19.08,11.3-3.8,2.23-7.51,4.39-10.69,6.2a14.2,14.2,0,0,1-2.31,1C873.66,609.48,873.24,604.54,873.24,604.54Z"
        opacity="0.1" transform="translate(-49.99 -44.29)" />
    <path
        d="M953.53,587s0,14.51-.41,29.42H953a55.48,55.48,0,0,1-7.39-.23c-4.31-.46-7.76-1.6-9-3.86-2.51-4.4-9.54-10-15.48-14.17-.31-8.54-.56-16.26-.56-16.26Z"
        opacity="0.1" transform="translate(-49.99 -44.29)" />
    <path
        d="M947.39,459.91a95.17,95.17,0,0,0-.48,19.63c15.16,12.5,12.33,38.83,12.33,38.83s11.67,53.34,9.17,58.17,5.66,34.5,5.66,34.5A145.51,145.51,0,0,1,953,613.46a55.48,55.48,0,0,1-7.39-.23c-4.31-.46-7.76-1.6-9-3.86-4.66-8.16-24.83-20.33-24.83-20.33S899,596.7,887.1,603.67c-3.8,2.23-7.51,4.39-10.69,6.2a19.84,19.84,0,0,1-8.35,2.29c-14.15,1.05-33-7.81-30-10.95,3.67-3.84,21.84-71.17,21.84-71.17s9.16-41.67,17.16-47.5a8.65,8.65,0,0,0,3-4.19c2.74-7.61-1.84-19.81-1.84-19.81s-25.83-31.83-24.67-33.67,1.17-11.66,1.17-11.66,3.17-15.5,5-23,15-9.34,18.83-8.67,12.49,3,16.15,0,9.84,1.17,9.84,1.17l15.18,4.18,13.65-8s13.68.7,14.85,2.53,19.17,5.34,19.17,5.34c9.16,6.16,8.83,35.5,8.83,35.5s-22,19.16-26.5,29A33.06,33.06,0,0,0,947.39,459.91Z"
        fill="#575a89" transform="translate(-49.99 -44.29)" />
    <path
        d="M971.24,418.2l5,4,5.17,46.5,5.16,46.67s2,4.67,3.67,4.17,1.5,27.66,1.5,27.66-19.14-11.77-26,3.86l-5.34-37.69s-6.84-38.5-6.67-41.5-3.5-35.5-3.5-35.5Z"
        fill="#575a89" transform="translate(-49.99 -44.29)" />
    <path
        d="M857.24,420.37l-3.67,4.5s.34,19.33-2.5,24,7.84,32,11.84,30.33,13-44.33,13-44.83S857.24,420.37,857.24,420.37Z"
        fill="#575a89" transform="translate(-49.99 -44.29)" />
    <path
        d="M856.91,447.87s-11.67,11.83-10.84,17.5,12,23.48,28,13.91C874.07,479.28,888.91,451.37,856.91,447.87Z"
        fill="#575a89" transform="translate(-49.99 -44.29)" />
    <path
        d="M904.69,802.24c-2.91.11-19.45,0-19.45,0a9,9,0,0,1-.68-.8C888.79,800,897.93,797.84,904.69,802.24Z"
        opacity="0.1" transform="translate(-49.99 -44.29)" />
    <path
        d="M952,802.24c-2.91.11-19.45,0-19.45,0a9,9,0,0,1-.68-.8C936.08,800,945.22,797.84,952,802.24Z"
        opacity="0.1" transform="translate(-49.99 -44.29)" />
    <path
        d="M888.28,509.11c-2.55,24.46-1.71,73-1.18,94.56-3.8,2.23-7.51,4.39-10.69,6.2a19.84,19.84,0,0,1-8.35,2.29C867,605.64,881.68,538.67,888.28,509.11Z"
        opacity="0.1" transform="translate(-49.99 -44.29)" />
    <path d="M891.4,495.23c-.07.35-1.28,5.67-3.12,13.88C889,502.1,890,497.07,891.4,495.23Z"
        opacity="0.1" transform="translate(-49.99 -44.29)" />
    <path d="M932,492.59s14.17,89-27.79,100C904.2,592.55,933.24,588.14,932,492.59Z"
        opacity="0.1" transform="translate(-49.99 -44.29)" />
    <path
        d="M953,613.46a55.48,55.48,0,0,1-7.39-.23L934.29,491.54C941.51,496.26,950.15,582.62,953,613.46Z"
        opacity="0.1" transform="translate(-49.99 -44.29)" />
    <path
        d="M902.24,343.24a6.19,6.19,0,0,1,2.23.23,9.73,9.73,0,0,1,2.82,2.12,10.05,10.05,0,0,0,9.54,1.85,12.58,12.58,0,0,1,3.59-1c1.91,0,3.56,1.4,4.55,3s1.5,3.5,2.35,5.21,2.21,3.33,4.08,3.75A7.14,7.14,0,0,1,934,359a3.68,3.68,0,0,1,1.12,1.55c1.56,3.37,2.8,7.35,6.13,9a9.17,9.17,0,0,0,3.91.85,8.17,8.17,0,0,0,4-.72,7.66,7.66,0,0,0,2.94-2.93c2.08-3.44,2.32-7.7,1.83-11.69A32.16,32.16,0,0,0,948.7,341a29.35,29.35,0,0,0-26.85-12.39,37.42,37.42,0,0,0-5.35,1c-6.36,1.7-12.6,4.88-16.46,10.21a34.64,34.64,0,0,1-3.07,3.78C898.72,343.43,900.48,343.28,902.24,343.24Z"
        opacity="0.1" transform="translate(-49.99 -44.29)" />
    <path
        d="M902.24,342.24a6.19,6.19,0,0,1,2.23.23,9.73,9.73,0,0,1,2.82,2.12,10.05,10.05,0,0,0,9.54,1.85,12.58,12.58,0,0,1,3.59-1c1.91,0,3.56,1.4,4.55,3s1.5,3.5,2.35,5.21,2.21,3.33,4.08,3.75A7.14,7.14,0,0,1,934,358a3.68,3.68,0,0,1,1.12,1.55c1.56,3.37,2.8,7.35,6.13,9a9.17,9.17,0,0,0,3.91.85,8.17,8.17,0,0,0,4-.72,7.66,7.66,0,0,0,2.94-2.93c2.08-3.44,2.32-7.7,1.83-11.69A32.16,32.16,0,0,0,948.7,340a29.35,29.35,0,0,0-26.85-12.39,37.42,37.42,0,0,0-5.35,1c-6.36,1.7-12.6,4.88-16.46,10.21a34.64,34.64,0,0,1-3.07,3.78C898.72,342.43,900.48,342.28,902.24,342.24Z"
        fill="#3f3d56" transform="translate(-49.99 -44.29)" />
    <path d="M876.74,398.2s1.17,9.34-2.83,11.67S876.74,398.2,876.74,398.2Z"
        opacity="0.1" transform="translate(-49.99 -44.29)" />
    <path d="M961.57,470.54s9.5-14,10.84-10S961.57,470.54,961.57,470.54Z"
        opacity="0.1" transform="translate(-49.99 -44.29)" />
    <path d="M962.24,475.2s9.37-11.5,10.27-7S962.24,475.2,962.24,475.2Z"
        opacity="0.1" transform="translate(-49.99 -44.29)" />
    <path
        d="M934.72,461.51a15.21,15.21,0,0,1-9.42-3.1l-.82,0a14.8,14.8,0,0,1-10.29,3.87A14.6,14.6,0,0,1,903.52,458l-1.09,0a15.71,15.71,0,0,1-20.28-.37l-3.91-.07s4.58,12.2,1.84,19.81l66.83,1.19a95.17,95.17,0,0,1,.48-19.63v-.09l-3.67-.07A15.38,15.38,0,0,1,934.72,461.51Z"
        opacity="0.1" transform="translate(-49.99 -44.29)" />
    <path
        d="M934.72,463.51a15.21,15.21,0,0,1-9.42-3.1l-.82,0a14.8,14.8,0,0,1-10.29,3.87A14.6,14.6,0,0,1,903.52,460l-1.09,0a15.71,15.71,0,0,1-20.28-.37l-3.91-.07s4.58,12.2,1.84,19.81l66.83,1.19a95.17,95.17,0,0,1,.48-19.63v-.09l-3.67-.07A15.38,15.38,0,0,1,934.72,463.51Z"
        opacity="0.1" transform="translate(-49.99 -44.29)" />
    <path
        d="M934.72,462.51a15.21,15.21,0,0,1-9.42-3.1l-.82,0a14.8,14.8,0,0,1-10.29,3.87A14.6,14.6,0,0,1,903.52,459l-1.09,0a15.71,15.71,0,0,1-20.28-.37l-3.91-.07s4.58,12.2,1.84,19.81l66.83,1.19a95.17,95.17,0,0,1,.48-19.63v-.09l-3.67-.07A15.38,15.38,0,0,1,934.72,462.51Z"
        fill="#3f3d56" transform="translate(-49.99 -44.29)" />
    <path d="M931.75,395.83s14.07.9,14.16,2.9S931.75,395.83,931.75,395.83Z"
        opacity="0.1" transform="translate(-49.99 -44.29)" />
    <path d="M897.57,387.3s-14.07.9-14.16,2.9S897.57,387.3,897.57,387.3Z"
        opacity="0.1" transform="translate(-49.99 -44.29)" />
    <path
        d="M951.34,428.19c-.14-.1-.28-.18-.42-.27,3.6,3.24,3,10.32-1.42,16.16s-11.13,8.27-15.21,5.65c.13.11.24.23.38.34,4,3.06,11,.66,15.62-5.38S955.36,431.26,951.34,428.19Z"
        opacity="0.1" transform="translate(-49.99 -44.29)" />
    <path
        d="M874.05,443.33c-3.56-6.42-3.1-13.51.93-16.2-.15.07-.31.13-.46.21-4.42,2.46-5,9.83-1.34,16.47s10.26,10,14.68,7.58a3.83,3.83,0,0,0,.42-.28C883.87,453.11,877.61,449.75,874.05,443.33Z"
        opacity="0.1" transform="translate(-49.99 -44.29)" />
    <path d="M878.81,389.19h0l-1.29,2-3.29-1.75,1.73-2.66A7.25,7.25,0,0,1,878.81,389.19Z"
        opacity="0.1" transform="translate(-49.99 -44.29)" />
    <path
        d="M857.91,463.2s2.93-13.78-1-18.16-2.67-27.34,3.33-26.84,15,18.66,13.5,22.5-7.17,23.5-7.17,23.5Z"
        fill="#fbbebe" transform="translate(-49.99 -44.29)" />
    <path
        d="M952,363.78a7.66,7.66,0,0,1-2.94,2.93,8.17,8.17,0,0,1-4,.72,9.17,9.17,0,0,1-3.91-.85c-3.33-1.66-4.57-5.64-6.13-9A3.68,3.68,0,0,0,934,356a7.14,7.14,0,0,0-2.57-.63c-1.87-.42-3.22-2.05-4.08-3.75s-1.37-3.58-2.35-5.21-2.64-3.06-4.55-3a12.29,12.29,0,0,0-3.59,1.05,10.08,10.08,0,0,1-9.54-1.86,9.73,9.73,0,0,0-2.82-2.12,6.19,6.19,0,0,0-2.23-.23c-1.15,0-2.29.11-3.44.2a25.14,25.14,0,0,1-1.83,2.14c1.75-.15,3.51-.3,5.27-.34a6.19,6.19,0,0,1,2.23.23,9.73,9.73,0,0,1,2.82,2.12,10.08,10.08,0,0,0,9.54,1.86,12.29,12.29,0,0,1,3.59-1.05c1.91,0,3.56,1.4,4.55,3s1.5,3.5,2.35,5.21,2.21,3.33,4.08,3.75A7.14,7.14,0,0,1,934,358a3.68,3.68,0,0,1,1.12,1.55c1.56,3.37,2.8,7.35,6.13,9a9.17,9.17,0,0,0,3.91.85,8.17,8.17,0,0,0,4-.72,7.66,7.66,0,0,0,2.94-2.93,16.59,16.59,0,0,0,2-9.26A15.28,15.28,0,0,1,952,363.78Z"
        opacity="0.1" transform="translate(-49.99 -44.29)" />
    <ellipse cx="812.35" cy="423.74" fill="#575a89" rx="9" ry="6.1" />
    <circle cx="518.99" cy="454.79" fill="#ff6347" r="308.5" />
    <path
        d="M730.85,654.11c0,48.7-76.56,4.16-158.64,4.16s-165.1,42.7-165.1-6c0-27.77,26.46-66.39,64.42-94.44h0c28.6-21.14,63.72-36.28,99-36.28,36.28,0,71.82,16.39,100.17,38.89C706.48,588.81,730.85,626.93,730.85,654.11Z"
        fill="#444053" transform="translate(-49.99 -44.29)" />
    <path
        d="M670.69,560.42c-43.63-6.57-122.54-14.58-199.16-2.61,28.6-21.14,63.72-36.28,99-36.28C606.8,521.53,642.34,537.92,670.69,560.42Z"
        fill="#f6f8fb" transform="translate(-49.99 -44.29)" />
    <path d="M407.11,281.31s-92.93,59.41-92.17,152.34S407.11,281.31,407.11,281.31Z"
        opacity="0.05" transform="translate(-49.99 -44.29)" />
    <path
        d="M877.36,113.52s-84.2-5.07-74.27,53.93c0,0-2,10.42,7.48,15.16,0,0,.15-4.37,8.63-2.89a39,39,0,0,0,9.15.44,19,19,0,0,0,11.18-4.62h0s23.67-9.77,32.88-48.46c0,0,6.81-8.44,6.54-10.6l-14.21,6.06s4.85,10.25,1,18.77c0,0-.46-18.39-3.19-18-.55.09-7.38,3.55-7.38,3.55s8.35,17.86,2,30.83c0,0,2.39-22-4.66-29.54l-10,5.84s9.76,18.44,3.14,33.49c0,0,1.7-23.08-5.24-32.07l-9.07,7.07s9.17,18.18,3.58,30.66c0,0-.73-26.87-5.54-28.9,0,0-7.93,7-9.14,9.87,0,0,6.28,13.19,2.39,20.15,0,0-2.39-17.9-4.35-18,0,0-7.9,11.86-8.73,20,0,0,.35-12.1,6.81-21.13,0,0-7.64,1.31-12.09,6.27,0,0,1.23-8.39,14-9.12,0,0,6.53-9,8.28-9.54,0,0-12.75-1.07-20.48,2.36,0,0,6.8-7.91,22.81-4.32l9-7.3s-16.78-2.3-23.9.24c0,0,8.19-7,26.31-1.9l9.75-5.83s-14.31-3.08-22.84-2c0,0,9-4.85,25.69.41l7-3.13s-10.49-2.06-13.56-2.38-3.23-1.18-3.23-1.18A36.35,36.35,0,0,1,862.83,120S877.61,114.45,877.36,113.52Z"
        fill="#ff6347" transform="translate(-49.99 -44.29)" />
    <path
        d="M791,87.29s-38-2.3-33.56,24.36c0,0-.89,4.71,3.38,6.85,0,0,.06-2,3.9-1.3a18.06,18.06,0,0,0,4.13.2,8.69,8.69,0,0,0,5.06-2.09h0s10.69-4.42,14.85-21.9c0,0,3.08-3.81,3-4.79l-6.42,2.74s2.2,4.63.47,8.48c0,0-.21-8.31-1.44-8.11-.25,0-3.34,1.6-3.34,1.6s3.78,8.07.93,13.93c0,0,1.08-9.94-2.1-13.35l-4.52,2.64s4.41,8.34,1.42,15.14c0,0,.76-10.43-2.37-14.49l-4.1,3.19s4.14,8.21,1.62,13.85c0,0-.33-12.14-2.51-13.06,0,0-3.58,3.16-4.13,4.46,0,0,2.84,6,1.08,9.11,0,0-1.08-8.09-2-8.12,0,0-3.57,5.35-3.94,9a19.48,19.48,0,0,1,3.07-9.55,10.71,10.71,0,0,0-5.46,2.83s.55-3.79,6.34-4.12c0,0,2.95-4.06,3.74-4.31,0,0-5.76-.48-9.25,1.07,0,0,3.07-3.58,10.31-2l4-3.29s-7.58-1-10.8.1c0,0,3.7-3.16,11.89-.85l4.4-2.64s-6.46-1.39-10.32-.89c0,0,4.07-2.19,11.61.19l3.15-1.42s-4.74-.93-6.12-1.07-1.47-.53-1.47-.53a16.39,16.39,0,0,1,8.9,1S791.11,87.71,791,87.29Z"
        fill="#ff6347" transform="translate(-49.99 -44.29)" />
    <ellipse cx="1073.09" cy="725.46" fill="#ff6347" opacity="0.1" rx="26.93" ry="4.55" />
    <ellipse cx="46.77" cy="801.15" fill="#ff6347" opacity="0.1" rx="26.93" ry="4.55" />
    <ellipse cx="203.1" cy="806.86" fill="#ff6347" opacity="0.1" rx="26.93" ry="4.55" />
    <ellipse cx="1014.15" cy="774.22" fill="#ff6347" rx="40.21" ry="6.8" />
    <path
        d="M1080.76,807.4a11.73,11.73,0,0,0,3.84-5.79c.49-2.29-.49-5.05-2.68-5.89-2.46-.94-5.09.77-7.08,2.49s-4.28,3.68-6.89,3.32a10.47,10.47,0,0,0,3.24-9.81,4.12,4.12,0,0,0-.9-2c-1.37-1.46-3.84-.84-5.48.31-5.2,3.66-6.65,10.72-6.68,17.08-.52-2.29-.08-4.68-.09-7s-.66-5-2.64-6.23a8,8,0,0,0-4-.94c-2.34-.09-4.94.14-6.54,1.85-2,2.13-1.47,5.69.26,8s4.35,3.81,6.76,5.42a15,15,0,0,1,4.84,4.61,4.83,4.83,0,0,1,.36.83h14.65A40.77,40.77,0,0,0,1080.76,807.4Z"
        fill="#ff6347" transform="translate(-49.99 -44.29)" />
    <path
        d="M109.33,723.55s5.49,7.18-2.54,18-14.65,20-12,26.76c0,0,12.11-20.14,22-20.43S120.17,735.66,109.33,723.55Z"
        fill="#ff6347" transform="translate(-49.99 -44.29)" />
    <path
        d="M109.33,723.55a9,9,0,0,1,1.12,2.25c9.62,11.3,14.74,21.85,5.5,22.11-8.62.25-19,15.65-21.43,19.54a9.3,9.3,0,0,0,.3.89s12.11-20.14,22-20.43S120.17,735.66,109.33,723.55Z"
        opacity="0.1" transform="translate(-49.99 -44.29)" />
    <path
        d="M119.54,732.7c0,2.53-.29,4.58-.64,4.58s-.63-2-.63-4.58.35-1.34.71-1.34S119.54,730.17,119.54,732.7Z"
        fill="#ffd037" transform="translate(-49.99 -44.29)" />
    <path
        d="M123,735.72c-2.22,1.21-4.15,1.94-4.32,1.63s1.5-1.53,3.72-2.74,1.34-.33,1.51,0S125.26,734.51,123,735.72Z"
        fill="#ffd037" transform="translate(-49.99 -44.29)" />
    <path
        d="M80.31,723.55s-5.49,7.18,2.53,18,14.65,20,12,26.76c0,0-12.12-20.14-22-20.43S69.46,735.66,80.31,723.55Z"
        fill="#ff6347" transform="translate(-49.99 -44.29)" />
    <path
        d="M80.31,723.55a8.63,8.63,0,0,0-1.12,2.25c-9.62,11.3-14.75,21.85-5.5,22.11,8.61.25,19,15.65,21.42,19.54a9.24,9.24,0,0,1-.29.89s-12.12-20.14-22-20.43S69.46,735.66,80.31,723.55Z"
        opacity="0.1" transform="translate(-49.99 -44.29)" />
    <path
        d="M70.1,732.7c0,2.53.28,4.58.63,4.58s.63-2,.63-4.58-.35-1.34-.7-1.34S70.1,730.17,70.1,732.7Z"
        fill="#ffd037" transform="translate(-49.99 -44.29)" />
    <path
        d="M66.59,735.72c2.22,1.21,4.16,1.94,4.33,1.63s-1.5-1.53-3.72-2.74-1.35-.33-1.51,0S64.37,734.51,66.59,735.72Z"
        fill="#ffd037" transform="translate(-49.99 -44.29)" />
    <path
        d="M71.85,767.4s15.36-.47,20-3.77,23.63-7.23,24.78-2,23.08,26.3,5.74,26.44-40.29-2.71-44.91-5.52S71.85,767.4,71.85,767.4Z"
        fill="#a8a8a8" transform="translate(-49.99 -44.29)" />
    <path
        d="M122.66,786.28c-17.34.14-40.29-2.71-44.91-5.52-3.52-2.14-4.92-9.83-5.39-13.38l-.51,0s1,12.39,5.59,15.2,27.57,5.66,44.91,5.52c5,0,6.73-1.83,6.64-4.46C128.29,785.25,126.39,786.25,122.66,786.28Z"
        opacity="0.2" transform="translate(-49.99 -44.29)" />
    <path
        d="M459.3,458.63c5.87-.33,33.5-2.41,51.05-12.42a19.89,19.89,0,0,1,9.27-2.73c5.58-.16,12,2.17,7.89,15.21-6.66,21.33-45.33,45.33-69.33,44-23.08-1.28-50.46-10.58-68.54-43.28a20,20,0,0,1-2.47-10.29c.21-6.6,2.61-14.87,15-5.65,16.74,12.45,48.5,14.81,54.87,15.16A21.11,21.11,0,0,0,459.3,458.63Z"
        fill="#444053" transform="translate(-49.99 -44.29)" />
    <path
        d="M681.3,458.63c5.87-.33,33.5-2.41,51.05-12.42a19.89,19.89,0,0,1,9.27-2.73c5.58-.16,12,2.17,7.89,15.21-6.66,21.33-45.33,45.33-69.33,44-23.08-1.28-50.46-10.58-68.54-43.28a20,20,0,0,1-2.47-10.29c.21-6.6,2.61-14.87,15-5.65,16.74,12.45,48.5,14.81,54.87,15.16A21.11,21.11,0,0,0,681.3,458.63Z"
        fill="#444053" transform="translate(-49.99 -44.29)" />
</svg>